<svg xmlns="http://www.w3.org/2000/svg" xmlns:xlink="http://www.w3.org/1999/xlink" width="585px" height="156px" viewBox="-1.25558 7.33675 610.599 162.826" preserveAspectRatio="xMidYMid meet" id="rk7e2uLHArf" version="1.1" xmlns:svgjs="http://svgjs.com/svgjs">
    <style type="text/css">
        @-webkit-keyframes rJFl2dIS0Hf_rk2NaSRrz_Animation{0%{-webkit-transform: rotate(0deg);transform: rotate(0deg);transform-box: fill-box;-webkit-transform-origin: 50% 50%;transform-origin: 50% 50%;}73.33%{-webkit-transform: rotate(-5deg);transform: rotate(-5deg);transform-box: fill-box;-webkit-transform-origin: 50% 50%;transform-origin: 50% 50%;}100%{-webkit-transform: rotate(0deg);transform: rotate(0deg);transform-box: fill-box;-webkit-transform-origin: 50% 50%;transform-origin: 50% 50%;}}@keyframes rJFl2dIS0Hf_rk2NaSRrz_Animation{0%{-webkit-transform: rotate(0deg);transform: rotate(0deg);transform-box: fill-box;-webkit-transform-origin: 50% 50%;transform-origin: 50% 50%;}73.33%{-webkit-transform: rotate(-5deg);transform: rotate(-5deg);transform-box: fill-box;-webkit-transform-origin: 50% 50%;transform-origin: 50% 50%;}100%{-webkit-transform: rotate(0deg);transform: rotate(0deg);transform-box: fill-box;-webkit-transform-origin: 50% 50%;transform-origin: 50% 50%;}}@-webkit-keyframes Hy5l3_LBCHG_ByKfTSRSz_Animation{0%{-webkit-transform: rotate(0deg);transform: rotate(0deg);transform-box: fill-box;-webkit-transform-origin: 50% 50%;transform-origin: 50% 50%;}63.33%{-webkit-transform: rotate(3.57deg);transform: rotate(3.57deg);transform-box: fill-box;-webkit-transform-origin: 50% 50%;transform-origin: 50% 50%;}100%{-webkit-transform: rotate(0deg);transform: rotate(0deg);transform-box: fill-box;-webkit-transform-origin: 50% 50%;transform-origin: 50% 50%;}}@keyframes Hy5l3_LBCHG_ByKfTSRSz_Animation{0%{-webkit-transform: rotate(0deg);transform: rotate(0deg);transform-box: fill-box;-webkit-transform-origin: 50% 50%;transform-origin: 50% 50%;}63.33%{-webkit-transform: rotate(3.57deg);transform: rotate(3.57deg);transform-box: fill-box;-webkit-transform-origin: 50% 50%;transform-origin: 50% 50%;}100%{-webkit-transform: rotate(0deg);transform: rotate(0deg);transform-box: fill-box;-webkit-transform-origin: 50% 50%;transform-origin: 50% 50%;}}@-webkit-keyframes rkvgnuUB0rM_S1_a2HASM_Animation{0%{-webkit-transform: rotate(0deg);transform: rotate(0deg);transform-box: fill-box;-webkit-transform-origin: 50% 50%;transform-origin: 50% 50%;}30%{-webkit-transform: rotate(5deg);transform: rotate(5deg);transform-box: fill-box;-webkit-transform-origin: 50% 50%;transform-origin: 50% 50%;}100%{-webkit-transform: rotate(0deg);transform: rotate(0deg);transform-box: fill-box;-webkit-transform-origin: 50% 50%;transform-origin: 50% 50%;}}@keyframes rkvgnuUB0rM_S1_a2HASM_Animation{0%{-webkit-transform: rotate(0deg);transform: rotate(0deg);transform-box: fill-box;-webkit-transform-origin: 50% 50%;transform-origin: 50% 50%;}30%{-webkit-transform: rotate(5deg);transform: rotate(5deg);transform-box: fill-box;-webkit-transform-origin: 50% 50%;transform-origin: 50% 50%;}100%{-webkit-transform: rotate(0deg);transform: rotate(0deg);transform-box: fill-box;-webkit-transform-origin: 50% 50%;transform-origin: 50% 50%;}}@-webkit-keyframes rJFl2dIS0Hf_ryO1iH0Bf_Animation{0%{-webkit-transform: scale(1, 1);transform: scale(1, 1);transform-box: fill-box;-webkit-transform-origin: 50% 50%;transform-origin: 50% 50%;}46.67%{-webkit-transform: scale(1.15, 1.15);transform: scale(1.15, 1.15);transform-box: fill-box;-webkit-transform-origin: 50% 50%;transform-origin: 50% 50%;}100%{-webkit-transform: scale(1, 1);transform: scale(1, 1);transform-box: fill-box;-webkit-transform-origin: 50% 50%;transform-origin: 50% 50%;}}@keyframes rJFl2dIS0Hf_ryO1iH0Bf_Animation{0%{-webkit-transform: scale(1, 1);transform: scale(1, 1);transform-box: fill-box;-webkit-transform-origin: 50% 50%;transform-origin: 50% 50%;}46.67%{-webkit-transform: scale(1.15, 1.15);transform: scale(1.15, 1.15);transform-box: fill-box;-webkit-transform-origin: 50% 50%;transform-origin: 50% 50%;}100%{-webkit-transform: scale(1, 1);transform: scale(1, 1);transform-box: fill-box;-webkit-transform-origin: 50% 50%;transform-origin: 50% 50%;}}@-webkit-keyframes Hy5l3_LBCHG_H1p5qSRBM_Animation{0%{-webkit-transform: scale(1, 1);transform: scale(1, 1);transform-box: fill-box;-webkit-transform-origin: 50% 50%;transform-origin: 50% 50%;}33.33%{-webkit-transform: scale(0.85, 0.85);transform: scale(0.85, 0.85);transform-box: fill-box;-webkit-transform-origin: 50% 50%;transform-origin: 50% 50%;}100%{-webkit-transform: scale(1, 1);transform: scale(1, 1);transform-box: fill-box;-webkit-transform-origin: 50% 50%;transform-origin: 50% 50%;}}@keyframes Hy5l3_LBCHG_H1p5qSRBM_Animation{0%{-webkit-transform: scale(1, 1);transform: scale(1, 1);transform-box: fill-box;-webkit-transform-origin: 50% 50%;transform-origin: 50% 50%;}33.33%{-webkit-transform: scale(0.85, 0.85);transform: scale(0.85, 0.85);transform-box: fill-box;-webkit-transform-origin: 50% 50%;transform-origin: 50% 50%;}100%{-webkit-transform: scale(1, 1);transform: scale(1, 1);transform-box: fill-box;-webkit-transform-origin: 50% 50%;transform-origin: 50% 50%;}}@-webkit-keyframes H1Ul2_8H0HG_Sy6GcB0Sf_Animation{0%{-webkit-transform: scale(1, 1);transform: scale(1, 1);transform-box: fill-box;-webkit-transform-origin: 50% 50%;transform-origin: 50% 50%;}40%{-webkit-transform: scale(1.15, 1.15);transform: scale(1.15, 1.15);transform-box: fill-box;-webkit-transform-origin: 50% 50%;transform-origin: 50% 50%;}100%{-webkit-transform: scale(1, 1);transform: scale(1, 1);transform-box: fill-box;-webkit-transform-origin: 50% 50%;transform-origin: 50% 50%;}}@keyframes H1Ul2_8H0HG_Sy6GcB0Sf_Animation{0%{-webkit-transform: scale(1, 1);transform: scale(1, 1);transform-box: fill-box;-webkit-transform-origin: 50% 50%;transform-origin: 50% 50%;}40%{-webkit-transform: scale(1.15, 1.15);transform: scale(1.15, 1.15);transform-box: fill-box;-webkit-transform-origin: 50% 50%;transform-origin: 50% 50%;}100%{-webkit-transform: scale(1, 1);transform: scale(1, 1);transform-box: fill-box;-webkit-transform-origin: 50% 50%;transform-origin: 50% 50%;}}@-webkit-keyframes rkvgnuUB0rM_B1oJcHCrz_Animation{0%{-webkit-transform: scale(1, 1);transform: scale(1, 1);transform-box: fill-box;-webkit-transform-origin: 50% 50%;transform-origin: 50% 50%;}63.33%{-webkit-transform: scale(0.85, 0.85);transform: scale(0.85, 0.85);transform-box: fill-box;-webkit-transform-origin: 50% 50%;transform-origin: 50% 50%;}100%{-webkit-transform: scale(1, 1);transform: scale(1, 1);transform-box: fill-box;-webkit-transform-origin: 50% 50%;transform-origin: 50% 50%;}}@keyframes rkvgnuUB0rM_B1oJcHCrz_Animation{0%{-webkit-transform: scale(1, 1);transform: scale(1, 1);transform-box: fill-box;-webkit-transform-origin: 50% 50%;transform-origin: 50% 50%;}63.33%{-webkit-transform: scale(0.85, 0.85);transform: scale(0.85, 0.85);transform-box: fill-box;-webkit-transform-origin: 50% 50%;transform-origin: 50% 50%;}100%{-webkit-transform: scale(1, 1);transform: scale(1, 1);transform-box: fill-box;-webkit-transform-origin: 50% 50%;transform-origin: 50% 50%;}}#rk7e2uLHArf *{-webkit-animation-duration: 1s;animation-duration: 1s;-webkit-animation-iteration-count: infinite;animation-iteration-count: infinite;-webkit-animation-timing-function: cubic-bezier(0, 0, 1, 1);animation-timing-function: cubic-bezier(0, 0, 1, 1);}#r1ElhOIS0SM{fill: none;stroke: none;}#H1SghuIHRrz{-webkit-transform:  matrix(1.00184,0,0,1.00184,-0.00265556,-0.0061375);transform:  matrix(1.00184,0,0,1.00184,-0.00265556,-0.0061375);}#H1Ul2_8H0HG{stroke: white;fill: url(#lgrd2-fire);fill-opacity: 1;-webkit-transform:  matrix(-1.00908,0,0,1,122.12,0);transform:  matrix(-1.00908,0,0,1,122.12,0);}#rkvgnuUB0rM{stroke: white;fill: url(#lgrd2-b);stroke-width: 1px;fill-opacity: 1;-webkit-transform:  matrix(-1.00908,0,0,1,122.12,0);transform:  matrix(-1.00908,0,0,1,122.12,0);}#rJFl2dIS0Hf{stroke: white;fill: url(#lgrd2-b);stroke-width: 1px;fill-opacity: 1;-webkit-transform:  matrix(1.00558,0,0,1.00967,107.895,-90.7539);transform:  matrix(1.00558,0,0,1.00967,107.895,-90.7539);}#Hy5l3_LBCHG{stroke: white;fill: url("#lgrd2-fire");fill-opacity: 1;stroke-width: 1px;-webkit-transform:  matrix(1.00558,0,0,1.00967,106.751,-86.6445);transform:  matrix(1.00558,0,0,1.00967,106.751,-86.6445);}#rJil2dLBCBM{-webkit-transform:  matrix(24.7599,0,0,24.7599,-3270.16,-1942.99);transform:  matrix(24.7599,0,0,24.7599,-3270.16,-1942.99);}#rJ6lh_IHRHM{-webkit-transform:  translate(0.000000,59.000000px) scale(0.100000,-0.100000);transform:  translate(0.000000,59.000000px) scale(0.100000,-0.100000);fill: #000000;stroke: none;}#Sy0l3_LH0Hz{fill: #F8F8FF;}#Hy1Zn_8r0Bf{fill: #F8F8FF;}#S1eZ3dLS0SG{fill: #F8F8FF;}#SkWbndIB0Bz{fill: #F8F8FF;}#ByMb3dIS0SG{fill: #F8F8FF;}#S1XZ3O8HRSM{fill: url(#lgrd3-fr-h);}#BJNW2uISArM{fill: url(#lgrd3-fr-h);}#rJrbhdUHRHz{fill: url(#lgrd3-fr-h);}#Bk8b2uISRBz{fill: url(#lgrd3-fr-h);}#r1wW3_UrAHz{fill: #F8F8FF;}#BkOW2OLrRHG{fill: #F8F8FF;}#HJFWhdLrRSM{stroke: ghostwhite;fill: none;stroke-width: 1.92px;-webkit-transform:  matrix(2.34643,0,0,2.34643,-122.493,-121.477);transform:  matrix(2.34643,0,0,2.34643,-122.493,-121.477);}#rJq-h_8rCHz{-webkit-transform:  matrix(11.4508,0,0,11.4508,-1417.25,-1400.45);transform:  matrix(11.4508,0,0,11.4508,-1417.25,-1400.45);}#Sk3Z3dIrRSf{-webkit-transform:  translate(0.000000,58.000000px) scale(0.100000,-0.100000);transform:  translate(0.000000,58.000000px) scale(0.100000,-0.100000);fill: #000000;stroke: none;}#HyT-3dUSCBz{fill: #F8F8FF;}#BJR-nu8BCrG{fill: #F8F8FF;}#SJJz3_IH0Bz{fill: #F8F8FF;}#BklMh_LBCHf{fill: #F8F8FF;}#rJbfndUHRrM{fill: #F8F8FF;}#ByzG3_ISRHz{fill: #F8F8FF;}#rymz2uIS0BM{fill: #F8F8FF;}#BJNf3_UHASG{fill: #F8F8FF;}#SJHGhdUH0SM{fill: #F8F8FF;}#SJLMnu8HASG{fill: #F8F8FF;}#r1Dz3u8B0rf{fill: #F8F8FF;}#ryOf3dLrCHG{fill: #F8F8FF;}#ByYfnOUH0Bf{fill: #F8F8FF;}#rkvgnuUB0rM_B1oJcHCrz{-webkit-animation-name: rkvgnuUB0rM_B1oJcHCrz_Animation;animation-name: rkvgnuUB0rM_B1oJcHCrz_Animation;}#H1Ul2_8H0HG_Sy6GcB0Sf{-webkit-animation-name: H1Ul2_8H0HG_Sy6GcB0Sf_Animation;animation-name: H1Ul2_8H0HG_Sy6GcB0Sf_Animation;}#Hy5l3_LBCHG_H1p5qSRBM{-webkit-animation-name: Hy5l3_LBCHG_H1p5qSRBM_Animation;animation-name: Hy5l3_LBCHG_H1p5qSRBM_Animation;}#rJFl2dIS0Hf_ryO1iH0Bf{-webkit-animation-name: rJFl2dIS0Hf_ryO1iH0Bf_Animation;animation-name: rJFl2dIS0Hf_ryO1iH0Bf_Animation;}#rkvgnuUB0rM_S1_a2HASM{-webkit-animation-name: rkvgnuUB0rM_S1_a2HASM_Animation;animation-name: rkvgnuUB0rM_S1_a2HASM_Animation;}#Hy5l3_LBCHG_ByKfTSRSz{-webkit-animation-name: Hy5l3_LBCHG_ByKfTSRSz_Animation;animation-name: Hy5l3_LBCHG_ByKfTSRSz_Animation;}#rJFl2dIS0Hf_rk2NaSRrz{-webkit-animation-name: rJFl2dIS0Hf_rk2NaSRrz_Animation;animation-name: rJFl2dIS0Hf_rk2NaSRrz_Animation;}
    </style>
    <rect id="r1ElhOIS0SM" x="-1.2555781602859497" y="7.336750030517578" width="610.5992431640625" height="162.8264617919922" class=""/>
    <g id="H1SghuIHRrz">
        <g id="H1Ul2_8H0HG_Sy6GcB0Sf" data-animator-group="true">
            <path d="M39.434907289543204,140.09081207392222q-10.106126962327451,-10.27054926249562,-8.097324451492184,-55.76025645268018q9.795802075764172,-14.715941287143337,27.769675314661526,-34.53899697766144q3.6071481157144447,-6.610597746460989,6.382748685630247,-15.647532061046142q0.9496079362076557,-8.317312065903224,2.834978655987541,-13.45649644927046q-3.430120897968422,-1.945425549660463,-5.8869151819299645,10.97632050597371q11.813462056823937,12.251806709772808,27.46368502704759,32.65585724698114q7.088751075699875,13.781461464922572,-6.9647364867567205,39.24614029259796q-10.375752076819708,15.350903714538177,-22.899155037075843,43.35574484005032q3.516921358878996,5.234923853169079,1.526351178530767,14.771889846099498q-2.941645064184847,-6.116240996411534,-8.345385681615632,-14.237357685125033q-0.1297669716255001,-8.22282941533453,6.819032761360333,-22.82304880664637q6.9030494756072045,-11.69257657536302,7.022408920843759,-31.44817769026561q-0.35959415501635306,-9.217182434004982,-4.579831558783212,-24.425769453289135q-3.387494630455862,5.417798411666624,-9.464985908914315,15.876745699500503q-6.077610589617095,10.197058949265141,-14.960783854252284,19.84593963623034q-10.468336788703436,9.830311222978366,-10.410227698635737,18.056146974788305Z" id="H1Ul2_8H0HG"/>
        </g>
        <g id="rkvgnuUB0rM_S1_a2HASM" data-animator-group="true">
            <g id="rkvgnuUB0rM_B1oJcHCrz" data-animator-group="true">
                <path d="M72.54143173669691,164.85949819286515q0.773387137452147,-3.2785316593620166,2.9242556840191583,-8.549934894718433q2.759689392829074,-8.467319832420173,4.418114289405267,-13.35716624624061q8.906605497289988,-5.822012147270755,17.708682618555258,-17.098036223766925q9.56536879772591,-20.160378185383507,9.009146544271061,-36.41074197502098q4.164752330544545,10.671073000564206,6.129273723207234,27.36503543006981q-1.2202626802405945,11.654583339057965,-8.72665763456871,21.258595673991536q-8.0061323929001,6.9959561423809475,-25.952380760043297,21.372547480906434q-4.499735992945546,4.0599357828173765,-4.197127927097611,3.6083989494399873Z" id="rkvgnuUB0rM"/>
            </g>
        </g>
        <g id="rJOe2OUSABM">
            <g id="rJFl2dIS0Hf_rk2NaSRrz" data-animator-group="true">
                <g id="rJFl2dIS0Hf_ryO1iH0Bf" data-animator-group="true">
                    <path d="M-48.3629597057025,246.31694405238105q-0.6777839001862986,-3.8506694699822788,-0.6585798786590331,-8.763811646152078q1.2892588134680665,-5.50184373003583,8.85434341430664,-12.212890625q8.906605497289988,-5.822012147270755,17.708682618555258,-17.098036223766883q8.996404694388147,-20.160378185383536,3.7096894156561433,-36.9035460690408q11.843280728931816,11.743349974947904,12.167063314854957,28.35453056440153q0.7486238878468612,11.157892298746049,-9.464990097601518,20.761904633679592q-8.006132392900096,6.995956142380976,-25.952380760043308,21.372547480906462q-4.005801083951248,4.0599357828173765,-5.588538799701318,7.794324314573771Z" id="rJFl2dIS0Hf"/>
                </g>
            </g>
            <g id="Hy5l3_LBCHG_ByKfTSRSz" data-animator-group="true">
                <g id="Hy5l3_LBCHG_H1p5qSRBM" data-animator-group="true">
                    <path d="M-89.28756516162719,222.30254998227403q-17.517794788771724,-14.850465762958862,0.9034400588314782,-56.07608366054177q9.7958020757642,-14.715941287143323,25.928411934449798,-33.09349993112829q5.11912155659666,-7.5641607641615,7.327732086181641,-15.266106853965894q1.5165979765384847,-9.652300290683925,-7.55906797814594,-21.895226706043573q8.668843983171435,4.024995198018203,23.782818760445004,19.23529249613358q14.508627386766406,16.379178074777116,16.140395367493824,31.360212532145823q-0.29665653265701053,13.921876221590423,-14.350144095113606,39.38655504926578q-10.375752076819708,15.350903714538163,-22.899155037075843,43.355744840050306q-1.0117607327422817,10.560270969722694,3.816026032930445,21.49595696402787q-11.27921368211343,-9.407481250618105,-12.901704655334079,-20.57999959597322q-0.13108301363010355,-6.315703379933495,9.085676880679088,-23.204474013726553q6.903049475607219,-11.692576575362978,7.022408920843773,-31.448177690265595q-0.35959415501635306,-9.217182434004997,-4.579831558783212,-24.42576945328915q-3.387494630455862,5.417798411666638,-9.464985908914315,15.876745699500532q-6.077610589617095,10.197058949265113,-14.960783854252284,19.845939636230355q-7.244206869789437,10.019198103697335,-9.07211645481074,24.349173642436796Z" id="Hy5l3_LBCHG"/>
                </g>
            </g>
        </g>
    </g>
    <g id="rJil2dLBCBM">
        <svg xmlns="http://www.w3.org/2000/svg" xmlns:xlink="http://www.w3.org/1999/xlink" height="27.6972" width="27.6972" viewBox="0 0 488 59" preserveAspectRatio="xMidYMid meet" zoomAndPan="disable" id="rJ3xhuUS0HG" x="136.888" y="67.426" style="stroke:black;stroke-width:1px;fill:khaki;">
            <style type="text/css">
                @-webkit-keyframes rJFl2dIS0Hf_rk2NaSRrz_Animation{0%{-webkit-transform: rotate(0deg);transform: rotate(0deg);transform-box: fill-box;-webkit-transform-origin: 50% 50%;transform-origin: 50% 50%;}73.33%{-webkit-transform: rotate(-5deg);transform: rotate(-5deg);transform-box: fill-box;-webkit-transform-origin: 50% 50%;transform-origin: 50% 50%;}100%{-webkit-transform: rotate(0deg);transform: rotate(0deg);transform-box: fill-box;-webkit-transform-origin: 50% 50%;transform-origin: 50% 50%;}}@keyframes rJFl2dIS0Hf_rk2NaSRrz_Animation{0%{-webkit-transform: rotate(0deg);transform: rotate(0deg);transform-box: fill-box;-webkit-transform-origin: 50% 50%;transform-origin: 50% 50%;}73.33%{-webkit-transform: rotate(-5deg);transform: rotate(-5deg);transform-box: fill-box;-webkit-transform-origin: 50% 50%;transform-origin: 50% 50%;}100%{-webkit-transform: rotate(0deg);transform: rotate(0deg);transform-box: fill-box;-webkit-transform-origin: 50% 50%;transform-origin: 50% 50%;}}@-webkit-keyframes Hy5l3_LBCHG_ByKfTSRSz_Animation{0%{-webkit-transform: rotate(0deg);transform: rotate(0deg);transform-box: fill-box;-webkit-transform-origin: 50% 50%;transform-origin: 50% 50%;}63.33%{-webkit-transform: rotate(3.57deg);transform: rotate(3.57deg);transform-box: fill-box;-webkit-transform-origin: 50% 50%;transform-origin: 50% 50%;}100%{-webkit-transform: rotate(0deg);transform: rotate(0deg);transform-box: fill-box;-webkit-transform-origin: 50% 50%;transform-origin: 50% 50%;}}@keyframes Hy5l3_LBCHG_ByKfTSRSz_Animation{0%{-webkit-transform: rotate(0deg);transform: rotate(0deg);transform-box: fill-box;-webkit-transform-origin: 50% 50%;transform-origin: 50% 50%;}63.33%{-webkit-transform: rotate(3.57deg);transform: rotate(3.57deg);transform-box: fill-box;-webkit-transform-origin: 50% 50%;transform-origin: 50% 50%;}100%{-webkit-transform: rotate(0deg);transform: rotate(0deg);transform-box: fill-box;-webkit-transform-origin: 50% 50%;transform-origin: 50% 50%;}}@-webkit-keyframes rkvgnuUB0rM_S1_a2HASM_Animation{0%{-webkit-transform: rotate(0deg);transform: rotate(0deg);transform-box: fill-box;-webkit-transform-origin: 50% 50%;transform-origin: 50% 50%;}30%{-webkit-transform: rotate(5deg);transform: rotate(5deg);transform-box: fill-box;-webkit-transform-origin: 50% 50%;transform-origin: 50% 50%;}100%{-webkit-transform: rotate(0deg);transform: rotate(0deg);transform-box: fill-box;-webkit-transform-origin: 50% 50%;transform-origin: 50% 50%;}}@keyframes rkvgnuUB0rM_S1_a2HASM_Animation{0%{-webkit-transform: rotate(0deg);transform: rotate(0deg);transform-box: fill-box;-webkit-transform-origin: 50% 50%;transform-origin: 50% 50%;}30%{-webkit-transform: rotate(5deg);transform: rotate(5deg);transform-box: fill-box;-webkit-transform-origin: 50% 50%;transform-origin: 50% 50%;}100%{-webkit-transform: rotate(0deg);transform: rotate(0deg);transform-box: fill-box;-webkit-transform-origin: 50% 50%;transform-origin: 50% 50%;}}@-webkit-keyframes rJFl2dIS0Hf_ryO1iH0Bf_Animation{0%{-webkit-transform: scale(1, 1);transform: scale(1, 1);transform-box: fill-box;-webkit-transform-origin: 50% 50%;transform-origin: 50% 50%;}46.67%{-webkit-transform: scale(1.15, 1.15);transform: scale(1.15, 1.15);transform-box: fill-box;-webkit-transform-origin: 50% 50%;transform-origin: 50% 50%;}100%{-webkit-transform: scale(1, 1);transform: scale(1, 1);transform-box: fill-box;-webkit-transform-origin: 50% 50%;transform-origin: 50% 50%;}}@keyframes rJFl2dIS0Hf_ryO1iH0Bf_Animation{0%{-webkit-transform: scale(1, 1);transform: scale(1, 1);transform-box: fill-box;-webkit-transform-origin: 50% 50%;transform-origin: 50% 50%;}46.67%{-webkit-transform: scale(1.15, 1.15);transform: scale(1.15, 1.15);transform-box: fill-box;-webkit-transform-origin: 50% 50%;transform-origin: 50% 50%;}100%{-webkit-transform: scale(1, 1);transform: scale(1, 1);transform-box: fill-box;-webkit-transform-origin: 50% 50%;transform-origin: 50% 50%;}}@-webkit-keyframes Hy5l3_LBCHG_H1p5qSRBM_Animation{0%{-webkit-transform: scale(1, 1);transform: scale(1, 1);transform-box: fill-box;-webkit-transform-origin: 50% 50%;transform-origin: 50% 50%;}33.33%{-webkit-transform: scale(0.85, 0.85);transform: scale(0.85, 0.85);transform-box: fill-box;-webkit-transform-origin: 50% 50%;transform-origin: 50% 50%;}100%{-webkit-transform: scale(1, 1);transform: scale(1, 1);transform-box: fill-box;-webkit-transform-origin: 50% 50%;transform-origin: 50% 50%;}}@keyframes Hy5l3_LBCHG_H1p5qSRBM_Animation{0%{-webkit-transform: scale(1, 1);transform: scale(1, 1);transform-box: fill-box;-webkit-transform-origin: 50% 50%;transform-origin: 50% 50%;}33.33%{-webkit-transform: scale(0.85, 0.85);transform: scale(0.85, 0.85);transform-box: fill-box;-webkit-transform-origin: 50% 50%;transform-origin: 50% 50%;}100%{-webkit-transform: scale(1, 1);transform: scale(1, 1);transform-box: fill-box;-webkit-transform-origin: 50% 50%;transform-origin: 50% 50%;}}@-webkit-keyframes H1Ul2_8H0HG_Sy6GcB0Sf_Animation{0%{-webkit-transform: scale(1, 1);transform: scale(1, 1);transform-box: fill-box;-webkit-transform-origin: 50% 50%;transform-origin: 50% 50%;}40%{-webkit-transform: scale(1.15, 1.15);transform: scale(1.15, 1.15);transform-box: fill-box;-webkit-transform-origin: 50% 50%;transform-origin: 50% 50%;}100%{-webkit-transform: scale(1, 1);transform: scale(1, 1);transform-box: fill-box;-webkit-transform-origin: 50% 50%;transform-origin: 50% 50%;}}@keyframes H1Ul2_8H0HG_Sy6GcB0Sf_Animation{0%{-webkit-transform: scale(1, 1);transform: scale(1, 1);transform-box: fill-box;-webkit-transform-origin: 50% 50%;transform-origin: 50% 50%;}40%{-webkit-transform: scale(1.15, 1.15);transform: scale(1.15, 1.15);transform-box: fill-box;-webkit-transform-origin: 50% 50%;transform-origin: 50% 50%;}100%{-webkit-transform: scale(1, 1);transform: scale(1, 1);transform-box: fill-box;-webkit-transform-origin: 50% 50%;transform-origin: 50% 50%;}}@-webkit-keyframes rkvgnuUB0rM_B1oJcHCrz_Animation{0%{-webkit-transform: scale(1, 1);transform: scale(1, 1);transform-box: fill-box;-webkit-transform-origin: 50% 50%;transform-origin: 50% 50%;}63.33%{-webkit-transform: scale(0.85, 0.85);transform: scale(0.85, 0.85);transform-box: fill-box;-webkit-transform-origin: 50% 50%;transform-origin: 50% 50%;}100%{-webkit-transform: scale(1, 1);transform: scale(1, 1);transform-box: fill-box;-webkit-transform-origin: 50% 50%;transform-origin: 50% 50%;}}@keyframes rkvgnuUB0rM_B1oJcHCrz_Animation{0%{-webkit-transform: scale(1, 1);transform: scale(1, 1);transform-box: fill-box;-webkit-transform-origin: 50% 50%;transform-origin: 50% 50%;}63.33%{-webkit-transform: scale(0.85, 0.85);transform: scale(0.85, 0.85);transform-box: fill-box;-webkit-transform-origin: 50% 50%;transform-origin: 50% 50%;}100%{-webkit-transform: scale(1, 1);transform: scale(1, 1);transform-box: fill-box;-webkit-transform-origin: 50% 50%;transform-origin: 50% 50%;}}#rk7e2uLHArf *{-webkit-animation-duration: 1s;animation-duration: 1s;-webkit-animation-iteration-count: infinite;animation-iteration-count: infinite;-webkit-animation-timing-function: cubic-bezier(0, 0, 1, 1);animation-timing-function: cubic-bezier(0, 0, 1, 1);}#r1ElhOIS0SM{fill: none;stroke: none;}#H1SghuIHRrz{-webkit-transform:  matrix(1.00184,0,0,1.00184,-0.00265556,-0.0061375);transform:  matrix(1.00184,0,0,1.00184,-0.00265556,-0.0061375);}#H1Ul2_8H0HG{stroke: white;fill: url(#lgrd2-fire);fill-opacity: 1;-webkit-transform:  matrix(-1.00908,0,0,1,122.12,0);transform:  matrix(-1.00908,0,0,1,122.12,0);}#rkvgnuUB0rM{stroke: white;fill: url(#lgrd2-b);stroke-width: 1px;fill-opacity: 1;-webkit-transform:  matrix(-1.00908,0,0,1,122.12,0);transform:  matrix(-1.00908,0,0,1,122.12,0);}#rJFl2dIS0Hf{stroke: white;fill: url(#lgrd2-b);stroke-width: 1px;fill-opacity: 1;-webkit-transform:  matrix(1.00558,0,0,1.00967,107.895,-90.7539);transform:  matrix(1.00558,0,0,1.00967,107.895,-90.7539);}#Hy5l3_LBCHG{stroke: white;fill: url("#lgrd2-fire");fill-opacity: 1;stroke-width: 1px;-webkit-transform:  matrix(1.00558,0,0,1.00967,106.751,-86.6445);transform:  matrix(1.00558,0,0,1.00967,106.751,-86.6445);}#rJil2dLBCBM{-webkit-transform:  matrix(24.7599,0,0,24.7599,-3270.16,-1942.99);transform:  matrix(24.7599,0,0,24.7599,-3270.16,-1942.99);}#rJ6lh_IHRHM{-webkit-transform:  translate(0.000000,59.000000px) scale(0.100000,-0.100000);transform:  translate(0.000000,59.000000px) scale(0.100000,-0.100000);fill: #000000;stroke: none;}#Sy0l3_LH0Hz{fill: #F8F8FF;}#Hy1Zn_8r0Bf{fill: #F8F8FF;}#S1eZ3dLS0SG{fill: #F8F8FF;}#SkWbndIB0Bz{fill: #F8F8FF;}#ByMb3dIS0SG{fill: #F8F8FF;}#S1XZ3O8HRSM{fill: url(#lgrd3-fr-h);}#BJNW2uISArM{fill: url(#lgrd3-fr-h);}#rJrbhdUHRHz{fill: url(#lgrd3-fr-h);}#Bk8b2uISRBz{fill: url(#lgrd3-fr-h);}#r1wW3_UrAHz{fill: #F8F8FF;}#BkOW2OLrRHG{fill: #F8F8FF;}#HJFWhdLrRSM{stroke: ghostwhite;fill: none;stroke-width: 1.92px;-webkit-transform:  matrix(2.34643,0,0,2.34643,-122.493,-121.477);transform:  matrix(2.34643,0,0,2.34643,-122.493,-121.477);}#rJq-h_8rCHz{-webkit-transform:  matrix(11.4508,0,0,11.4508,-1417.25,-1400.45);transform:  matrix(11.4508,0,0,11.4508,-1417.25,-1400.45);}#Sk3Z3dIrRSf{-webkit-transform:  translate(0.000000,58.000000px) scale(0.100000,-0.100000);transform:  translate(0.000000,58.000000px) scale(0.100000,-0.100000);fill: #000000;stroke: none;}#HyT-3dUSCBz{fill: #F8F8FF;}#BJR-nu8BCrG{fill: #F8F8FF;}#SJJz3_IH0Bz{fill: #F8F8FF;}#BklMh_LBCHf{fill: #F8F8FF;}#rJbfndUHRrM{fill: #F8F8FF;}#ByzG3_ISRHz{fill: #F8F8FF;}#rymz2uIS0BM{fill: #F8F8FF;}#BJNf3_UHASG{fill: #F8F8FF;}#SJHGhdUH0SM{fill: #F8F8FF;}#SJLMnu8HASG{fill: #F8F8FF;}#r1Dz3u8B0rf{fill: #F8F8FF;}#ryOf3dLrCHG{fill: #F8F8FF;}#ByYfnOUH0Bf{fill: #F8F8FF;}#rkvgnuUB0rM_B1oJcHCrz{-webkit-animation-name: rkvgnuUB0rM_B1oJcHCrz_Animation;animation-name: rkvgnuUB0rM_B1oJcHCrz_Animation;}#H1Ul2_8H0HG_Sy6GcB0Sf{-webkit-animation-name: H1Ul2_8H0HG_Sy6GcB0Sf_Animation;animation-name: H1Ul2_8H0HG_Sy6GcB0Sf_Animation;}#Hy5l3_LBCHG_H1p5qSRBM{-webkit-animation-name: Hy5l3_LBCHG_H1p5qSRBM_Animation;animation-name: Hy5l3_LBCHG_H1p5qSRBM_Animation;}#rJFl2dIS0Hf_ryO1iH0Bf{-webkit-animation-name: rJFl2dIS0Hf_ryO1iH0Bf_Animation;animation-name: rJFl2dIS0Hf_ryO1iH0Bf_Animation;}#rkvgnuUB0rM_S1_a2HASM{-webkit-animation-name: rkvgnuUB0rM_S1_a2HASM_Animation;animation-name: rkvgnuUB0rM_S1_a2HASM_Animation;}#Hy5l3_LBCHG_ByKfTSRSz{-webkit-animation-name: Hy5l3_LBCHG_ByKfTSRSz_Animation;animation-name: Hy5l3_LBCHG_ByKfTSRSz_Animation;}#rJFl2dIS0Hf_rk2NaSRrz{-webkit-animation-name: rJFl2dIS0Hf_rk2NaSRrz_Animation;animation-name: rJFl2dIS0Hf_rk2NaSRrz_Animation;}
            </style>
            <g id="rJ6lh_IHRHM">
                <path d="M141,488c-23,-107,-81,-377,-81,-382c0,-4,22,-6,49,-6c45,0,49,2,54,28c3,15,12,61,21,102c9,41,23,108,32,148l15,72l78,0c87,0,111,-13,92,-48c-12,-23,-32,-32,-72,-32c-32,0,-49,-27,-49,-76c0,-21,5,-24,34,-24c47,0,64,-22,42,-55c-15,-23,-23,-25,-91,-25c-40,0,-76,-3,-79,-8c-2,-4,-7,-24,-11,-46l-8,-38l101,4c96,3,102,4,132,33c48,45,62,80,58,140c-2,41,1,58,16,74c12,14,21,41,24,76c4,50,2,57,-26,85l-30,30l-145,0l-144,0l-12,-52Z" id="Sy0l3_LH0Hz"/>
                <path d="M594.1360595678525,478c-6,-35,-21,-106,-32,-158c-26,-129,-28,-122,27,-118l47,3l12,60c6,33,18,92,27,130c8,39,18,87,21,108l7,37l-49,0l-48,0l-12,-62Z" id="Hy1Zn_8r0Bf"/>
                <path d="M987.272119135705,483c-5,-32,-22,-118,-38,-192c-27,-133,-27,-134,-7,-160c18,-25,24,-26,124,-29c102,-3,106,-2,112,20c17,65,13,68,-74,68c-44,0,-80,2,-80,5c0,2,13,64,29,137c17,73,33,150,37,171l6,37l-49,0l-49,0l-11,-57Z" id="S1eZ3dLS0SG"/>
                <path d="M1279.272119135705,528c-6,-15,-59,-258,-79,-360l-14,-68l48,0l47,0l22,103c13,56,34,150,47,209c13,59,24,111,24,117c0,16,-90,14,-95,-1Z" id="SkWbndIB0Bz"/>
                <path d="M1446.4081787035575,433c-12,-60,-30,-144,-40,-188c-10,-44,-21,-95,-24,-112l-5,-33l189,0c155,0,190,3,190,14c0,7,3,28,6,45l7,31l-137,0c-75,0,-136,4,-136,9c0,7,29,149,47,229c5,21,8,22,143,22l138,0l5,28c3,15,9,35,12,45c7,16,-6,17,-183,17l-189,0l-23,-107Z" id="ByMb3dIS0SG"/>
                <path d="M1933.54423827141,528c-2,-7,-11,-49,-19,-93c-9,-44,-27,-132,-40,-195c-14,-63,-25,-121,-26,-127c0,-9,16,-13,50,-13c43,0,50,3,50,20c0,11,7,53,17,95c11,52,19,73,27,65c5,-5,50,-10,98,-10c86,0,89,1,98,26c6,14,10,36,10,50c0,24,-1,24,-94,24l-94,0l-7,-36c-3,-20,-8,-34,-11,-31c-2,2,1,36,8,76l12,71l143,0c115,0,143,3,143,14c0,7,3,28,6,45l7,31l-187,0c-140,0,-188,-3,-191,-12Z" id="S1XZ3O8HRSM"/>
                <path d="M2400.6802978392625,520c0,-10,-9,-57,-20,-102c-10,-46,-29,-128,-40,-183c-12,-55,-24,-108,-26,-117c-5,-15,2,-18,45,-18l50,0l16,78c9,42,27,124,40,182c13,58,26,122,29,143l7,37l-51,0c-43,0,-50,-3,-50,-20Z" id="BJNW2uISArM"/>
                <path d="M2592.816357407115,522c0,-15,-20,-113,-66,-317c-8,-38,-18,-78,-20,-87c-5,-15,2,-18,45,-18c39,0,51,4,55,18c5,15,16,68,59,280l10,52l83,0c86,0,98,-6,87,-48c-6,-25,-30,-32,-110,-32c-35,0,-63,-4,-63,-9c0,-12,78,-150,98,-173c11,-13,30,-18,69,-18c29,0,53,3,53,8c0,4,-13,29,-30,57l-29,49l37,21c45,25,72,75,72,135c-1,87,-28,100,-209,100c-128,0,-141,-2,-141,-18Z" id="rJrbhdUHRHz"/>
                <path d="M3049.1231921552717,528c-2,-7,-11,-47,-19,-88c-8,-41,-26,-133,-40,-205c-14,-71,-26,-130,-26,-132c0,-2,83,-3,185,-3l184,0l10,38c6,20,11,40,11,45c0,4,-63,7,-141,7c-118,0,-140,2,-136,14c3,8,9,31,13,51c5,26,10,33,17,26c6,-6,50,-11,99,-11c86,0,89,1,98,26c6,14,10,36,10,50c0,24,-1,24,-94,24l-94,0l-7,-37c-4,-21,-9,-33,-11,-28c-3,6,2,40,9,75l13,65l142,3c111,2,142,5,142,16c0,7,3,28,6,45l7,31l-187,0c-140,0,-188,-3,-191,-12Z" id="Bk8b2uISRBz"/>
                <path d="M1542.4081787035575,362c-3,-5,-8,-28,-12,-50l-7,-42l92,0c89,0,92,1,101,26c6,14,10,36,10,50c0,24,-1,24,-89,24c-50,0,-92,-4,-95,-8Z" id="r1wW3_UrAHz"/>
                <path d="M529.1360595678525,173c-3,-10,-8,-30,-11,-45l-6,-28l154,0c151,0,154,0,160,23c3,12,6,32,6,45c0,22,-1,22,-149,22c-134,0,-150,-2,-154,-17Z" id="BkOW2OLrRHG"/>
            </g>
        </svg>
    </g>
    <line id="HJFWhdLrRSM" x1="106.421" y1="98.5858" x2="309.653" y2="97.2002"/>
    <g id="rJq-h_8rCHz">
        <svg xmlns="http://www.w3.org/2000/svg" xmlns:xlink="http://www.w3.org/1999/xlink" height="37.4053" width="37.4053" viewBox="0 0 707 58" preserveAspectRatio="xMidYMid meet" zoomAndPan="disable" id="SJob2d8rAHf" x="137.247" y="115.29" style="stroke:black;stroke-width:1px;fill:khaki;">
            <style type="text/css">
                @-webkit-keyframes rJFl2dIS0Hf_rk2NaSRrz_Animation{0%{-webkit-transform: rotate(0deg);transform: rotate(0deg);transform-box: fill-box;-webkit-transform-origin: 50% 50%;transform-origin: 50% 50%;}73.33%{-webkit-transform: rotate(-5deg);transform: rotate(-5deg);transform-box: fill-box;-webkit-transform-origin: 50% 50%;transform-origin: 50% 50%;}100%{-webkit-transform: rotate(0deg);transform: rotate(0deg);transform-box: fill-box;-webkit-transform-origin: 50% 50%;transform-origin: 50% 50%;}}@keyframes rJFl2dIS0Hf_rk2NaSRrz_Animation{0%{-webkit-transform: rotate(0deg);transform: rotate(0deg);transform-box: fill-box;-webkit-transform-origin: 50% 50%;transform-origin: 50% 50%;}73.33%{-webkit-transform: rotate(-5deg);transform: rotate(-5deg);transform-box: fill-box;-webkit-transform-origin: 50% 50%;transform-origin: 50% 50%;}100%{-webkit-transform: rotate(0deg);transform: rotate(0deg);transform-box: fill-box;-webkit-transform-origin: 50% 50%;transform-origin: 50% 50%;}}@-webkit-keyframes Hy5l3_LBCHG_ByKfTSRSz_Animation{0%{-webkit-transform: rotate(0deg);transform: rotate(0deg);transform-box: fill-box;-webkit-transform-origin: 50% 50%;transform-origin: 50% 50%;}63.33%{-webkit-transform: rotate(3.57deg);transform: rotate(3.57deg);transform-box: fill-box;-webkit-transform-origin: 50% 50%;transform-origin: 50% 50%;}100%{-webkit-transform: rotate(0deg);transform: rotate(0deg);transform-box: fill-box;-webkit-transform-origin: 50% 50%;transform-origin: 50% 50%;}}@keyframes Hy5l3_LBCHG_ByKfTSRSz_Animation{0%{-webkit-transform: rotate(0deg);transform: rotate(0deg);transform-box: fill-box;-webkit-transform-origin: 50% 50%;transform-origin: 50% 50%;}63.33%{-webkit-transform: rotate(3.57deg);transform: rotate(3.57deg);transform-box: fill-box;-webkit-transform-origin: 50% 50%;transform-origin: 50% 50%;}100%{-webkit-transform: rotate(0deg);transform: rotate(0deg);transform-box: fill-box;-webkit-transform-origin: 50% 50%;transform-origin: 50% 50%;}}@-webkit-keyframes rkvgnuUB0rM_S1_a2HASM_Animation{0%{-webkit-transform: rotate(0deg);transform: rotate(0deg);transform-box: fill-box;-webkit-transform-origin: 50% 50%;transform-origin: 50% 50%;}30%{-webkit-transform: rotate(5deg);transform: rotate(5deg);transform-box: fill-box;-webkit-transform-origin: 50% 50%;transform-origin: 50% 50%;}100%{-webkit-transform: rotate(0deg);transform: rotate(0deg);transform-box: fill-box;-webkit-transform-origin: 50% 50%;transform-origin: 50% 50%;}}@keyframes rkvgnuUB0rM_S1_a2HASM_Animation{0%{-webkit-transform: rotate(0deg);transform: rotate(0deg);transform-box: fill-box;-webkit-transform-origin: 50% 50%;transform-origin: 50% 50%;}30%{-webkit-transform: rotate(5deg);transform: rotate(5deg);transform-box: fill-box;-webkit-transform-origin: 50% 50%;transform-origin: 50% 50%;}100%{-webkit-transform: rotate(0deg);transform: rotate(0deg);transform-box: fill-box;-webkit-transform-origin: 50% 50%;transform-origin: 50% 50%;}}@-webkit-keyframes rJFl2dIS0Hf_ryO1iH0Bf_Animation{0%{-webkit-transform: scale(1, 1);transform: scale(1, 1);transform-box: fill-box;-webkit-transform-origin: 50% 50%;transform-origin: 50% 50%;}46.67%{-webkit-transform: scale(1.15, 1.15);transform: scale(1.15, 1.15);transform-box: fill-box;-webkit-transform-origin: 50% 50%;transform-origin: 50% 50%;}100%{-webkit-transform: scale(1, 1);transform: scale(1, 1);transform-box: fill-box;-webkit-transform-origin: 50% 50%;transform-origin: 50% 50%;}}@keyframes rJFl2dIS0Hf_ryO1iH0Bf_Animation{0%{-webkit-transform: scale(1, 1);transform: scale(1, 1);transform-box: fill-box;-webkit-transform-origin: 50% 50%;transform-origin: 50% 50%;}46.67%{-webkit-transform: scale(1.15, 1.15);transform: scale(1.15, 1.15);transform-box: fill-box;-webkit-transform-origin: 50% 50%;transform-origin: 50% 50%;}100%{-webkit-transform: scale(1, 1);transform: scale(1, 1);transform-box: fill-box;-webkit-transform-origin: 50% 50%;transform-origin: 50% 50%;}}@-webkit-keyframes Hy5l3_LBCHG_H1p5qSRBM_Animation{0%{-webkit-transform: scale(1, 1);transform: scale(1, 1);transform-box: fill-box;-webkit-transform-origin: 50% 50%;transform-origin: 50% 50%;}33.33%{-webkit-transform: scale(0.85, 0.85);transform: scale(0.85, 0.85);transform-box: fill-box;-webkit-transform-origin: 50% 50%;transform-origin: 50% 50%;}100%{-webkit-transform: scale(1, 1);transform: scale(1, 1);transform-box: fill-box;-webkit-transform-origin: 50% 50%;transform-origin: 50% 50%;}}@keyframes Hy5l3_LBCHG_H1p5qSRBM_Animation{0%{-webkit-transform: scale(1, 1);transform: scale(1, 1);transform-box: fill-box;-webkit-transform-origin: 50% 50%;transform-origin: 50% 50%;}33.33%{-webkit-transform: scale(0.85, 0.85);transform: scale(0.85, 0.85);transform-box: fill-box;-webkit-transform-origin: 50% 50%;transform-origin: 50% 50%;}100%{-webkit-transform: scale(1, 1);transform: scale(1, 1);transform-box: fill-box;-webkit-transform-origin: 50% 50%;transform-origin: 50% 50%;}}@-webkit-keyframes H1Ul2_8H0HG_Sy6GcB0Sf_Animation{0%{-webkit-transform: scale(1, 1);transform: scale(1, 1);transform-box: fill-box;-webkit-transform-origin: 50% 50%;transform-origin: 50% 50%;}40%{-webkit-transform: scale(1.15, 1.15);transform: scale(1.15, 1.15);transform-box: fill-box;-webkit-transform-origin: 50% 50%;transform-origin: 50% 50%;}100%{-webkit-transform: scale(1, 1);transform: scale(1, 1);transform-box: fill-box;-webkit-transform-origin: 50% 50%;transform-origin: 50% 50%;}}@keyframes H1Ul2_8H0HG_Sy6GcB0Sf_Animation{0%{-webkit-transform: scale(1, 1);transform: scale(1, 1);transform-box: fill-box;-webkit-transform-origin: 50% 50%;transform-origin: 50% 50%;}40%{-webkit-transform: scale(1.15, 1.15);transform: scale(1.15, 1.15);transform-box: fill-box;-webkit-transform-origin: 50% 50%;transform-origin: 50% 50%;}100%{-webkit-transform: scale(1, 1);transform: scale(1, 1);transform-box: fill-box;-webkit-transform-origin: 50% 50%;transform-origin: 50% 50%;}}@-webkit-keyframes rkvgnuUB0rM_B1oJcHCrz_Animation{0%{-webkit-transform: scale(1, 1);transform: scale(1, 1);transform-box: fill-box;-webkit-transform-origin: 50% 50%;transform-origin: 50% 50%;}63.33%{-webkit-transform: scale(0.85, 0.85);transform: scale(0.85, 0.85);transform-box: fill-box;-webkit-transform-origin: 50% 50%;transform-origin: 50% 50%;}100%{-webkit-transform: scale(1, 1);transform: scale(1, 1);transform-box: fill-box;-webkit-transform-origin: 50% 50%;transform-origin: 50% 50%;}}@keyframes rkvgnuUB0rM_B1oJcHCrz_Animation{0%{-webkit-transform: scale(1, 1);transform: scale(1, 1);transform-box: fill-box;-webkit-transform-origin: 50% 50%;transform-origin: 50% 50%;}63.33%{-webkit-transform: scale(0.85, 0.85);transform: scale(0.85, 0.85);transform-box: fill-box;-webkit-transform-origin: 50% 50%;transform-origin: 50% 50%;}100%{-webkit-transform: scale(1, 1);transform: scale(1, 1);transform-box: fill-box;-webkit-transform-origin: 50% 50%;transform-origin: 50% 50%;}}#rk7e2uLHArf *{-webkit-animation-duration: 1s;animation-duration: 1s;-webkit-animation-iteration-count: infinite;animation-iteration-count: infinite;-webkit-animation-timing-function: cubic-bezier(0, 0, 1, 1);animation-timing-function: cubic-bezier(0, 0, 1, 1);}#r1ElhOIS0SM{fill: none;stroke: none;}#H1SghuIHRrz{-webkit-transform:  matrix(1.00184,0,0,1.00184,-0.00265556,-0.0061375);transform:  matrix(1.00184,0,0,1.00184,-0.00265556,-0.0061375);}#H1Ul2_8H0HG{stroke: white;fill: url(#lgrd2-fire);fill-opacity: 1;-webkit-transform:  matrix(-1.00908,0,0,1,122.12,0);transform:  matrix(-1.00908,0,0,1,122.12,0);}#rkvgnuUB0rM{stroke: white;fill: url(#lgrd2-b);stroke-width: 1px;fill-opacity: 1;-webkit-transform:  matrix(-1.00908,0,0,1,122.12,0);transform:  matrix(-1.00908,0,0,1,122.12,0);}#rJFl2dIS0Hf{stroke: white;fill: url(#lgrd2-b);stroke-width: 1px;fill-opacity: 1;-webkit-transform:  matrix(1.00558,0,0,1.00967,107.895,-90.7539);transform:  matrix(1.00558,0,0,1.00967,107.895,-90.7539);}#Hy5l3_LBCHG{stroke: white;fill: url("#lgrd2-fire");fill-opacity: 1;stroke-width: 1px;-webkit-transform:  matrix(1.00558,0,0,1.00967,106.751,-86.6445);transform:  matrix(1.00558,0,0,1.00967,106.751,-86.6445);}#rJil2dLBCBM{-webkit-transform:  matrix(24.7599,0,0,24.7599,-3270.16,-1942.99);transform:  matrix(24.7599,0,0,24.7599,-3270.16,-1942.99);}#rJ6lh_IHRHM{-webkit-transform:  translate(0.000000,59.000000px) scale(0.100000,-0.100000);transform:  translate(0.000000,59.000000px) scale(0.100000,-0.100000);fill: #000000;stroke: none;}#Sy0l3_LH0Hz{fill: #F8F8FF;}#Hy1Zn_8r0Bf{fill: #F8F8FF;}#S1eZ3dLS0SG{fill: #F8F8FF;}#SkWbndIB0Bz{fill: #F8F8FF;}#ByMb3dIS0SG{fill: #F8F8FF;}#S1XZ3O8HRSM{fill: url(#lgrd3-fr-h);}#BJNW2uISArM{fill: url(#lgrd3-fr-h);}#rJrbhdUHRHz{fill: url(#lgrd3-fr-h);}#Bk8b2uISRBz{fill: url(#lgrd3-fr-h);}#r1wW3_UrAHz{fill: #F8F8FF;}#BkOW2OLrRHG{fill: #F8F8FF;}#HJFWhdLrRSM{stroke: ghostwhite;fill: none;stroke-width: 1.92px;-webkit-transform:  matrix(2.34643,0,0,2.34643,-122.493,-121.477);transform:  matrix(2.34643,0,0,2.34643,-122.493,-121.477);}#rJq-h_8rCHz{-webkit-transform:  matrix(11.4508,0,0,11.4508,-1417.25,-1400.45);transform:  matrix(11.4508,0,0,11.4508,-1417.25,-1400.45);}#Sk3Z3dIrRSf{-webkit-transform:  translate(0.000000,58.000000px) scale(0.100000,-0.100000);transform:  translate(0.000000,58.000000px) scale(0.100000,-0.100000);fill: #000000;stroke: none;}#HyT-3dUSCBz{fill: #F8F8FF;}#BJR-nu8BCrG{fill: #F8F8FF;}#SJJz3_IH0Bz{fill: #F8F8FF;}#BklMh_LBCHf{fill: #F8F8FF;}#rJbfndUHRrM{fill: #F8F8FF;}#ByzG3_ISRHz{fill: #F8F8FF;}#rymz2uIS0BM{fill: #F8F8FF;}#BJNf3_UHASG{fill: #F8F8FF;}#SJHGhdUH0SM{fill: #F8F8FF;}#SJLMnu8HASG{fill: #F8F8FF;}#r1Dz3u8B0rf{fill: #F8F8FF;}#ryOf3dLrCHG{fill: #F8F8FF;}#ByYfnOUH0Bf{fill: #F8F8FF;}#rkvgnuUB0rM_B1oJcHCrz{-webkit-animation-name: rkvgnuUB0rM_B1oJcHCrz_Animation;animation-name: rkvgnuUB0rM_B1oJcHCrz_Animation;}#H1Ul2_8H0HG_Sy6GcB0Sf{-webkit-animation-name: H1Ul2_8H0HG_Sy6GcB0Sf_Animation;animation-name: H1Ul2_8H0HG_Sy6GcB0Sf_Animation;}#Hy5l3_LBCHG_H1p5qSRBM{-webkit-animation-name: Hy5l3_LBCHG_H1p5qSRBM_Animation;animation-name: Hy5l3_LBCHG_H1p5qSRBM_Animation;}#rJFl2dIS0Hf_ryO1iH0Bf{-webkit-animation-name: rJFl2dIS0Hf_ryO1iH0Bf_Animation;animation-name: rJFl2dIS0Hf_ryO1iH0Bf_Animation;}#rkvgnuUB0rM_S1_a2HASM{-webkit-animation-name: rkvgnuUB0rM_S1_a2HASM_Animation;animation-name: rkvgnuUB0rM_S1_a2HASM_Animation;}#Hy5l3_LBCHG_ByKfTSRSz{-webkit-animation-name: Hy5l3_LBCHG_ByKfTSRSz_Animation;animation-name: Hy5l3_LBCHG_ByKfTSRSz_Animation;}#rJFl2dIS0Hf_rk2NaSRrz{-webkit-animation-name: rJFl2dIS0Hf_rk2NaSRrz_Animation;animation-name: rJFl2dIS0Hf_rk2NaSRrz_Animation;}
            </style>
            <g id="Sk3Z3dIrRSf">
                <path d="M20.000000000010914,290l0,-220l250,0l250,0l0,130l0,130l-150,0l-150,0l0,-45l0,-45l105,0l105,0l0,-40l0,-40l-160,0l-160,0l0,130l0,130l205,0l205,0l0,45l0,45l-250,0l-250,0l0,-220Z" id="HyT-3dUSCBz"/>
                <path d="M580.0000000000109,290l0,-220l45,0l45,0l0,85l0,85l160,0l160,0l0,-85l0,-85l45,0l45,0l0,220l0,220l-250,0l-250,0l0,-220ZM990.0000000000109,375l0,-45l-160,0l-160,0l0,45l0,45l160,0l160,0l0,-45Z" id="BJR-nu8BCrG"/>
                <path d="M1140.000000000011,290l0,-220l45,0l45,0l0,157l0,158l88,-88l87,-87l88,87l87,88l0,-158l0,-157l45,0l45,0l0,220l0,220l-48,0c-46,0,-49,-2,-132,-85l-85,-85l-85,85c-83,83,-87,85,-133,85l-47,0l0,-220Z" id="SJJz3_IH0Bz"/>
                <path d="M1730.000000000011,290l0,-220l45,0l45,0l0,220l0,220l-45,0l-45,0l0,-220Z" id="BklMh_LBCHf"/>
                <path d="M1880.000000000011,290l0,-220l45,0l45,0l0,157l0,158l158,-158l157,-157l48,0l47,0l0,220l0,220l-45,0l-45,0l0,-157l0,-158l-158,158l-157,157l-48,0l-47,0l0,-220Z" id="rJbfndUHRrM"/>
                <path d="M2440.000000000011,290l0,-220l250,0l250,0l0,130l0,130l-150,0l-150,0l0,-45l0,-45l105,0l105,0l0,-40l0,-40l-160,0l-160,0l0,130l0,130l205,0l205,0l0,45l0,45l-250,0l-250,0l0,-220Z" id="ByzG3_ISRHz"/>
                <path d="M3149.9999999999854,290l0,-220l250,0l250,0l0,105l0,105l-45,0l-45,0l0,-60l0,-60l-160,0l-160,0l0,175l0,175l-45,0l-45,0l0,-220Z" id="rymz2uIS0BM"/>
                <path d="M3709.9999999999854,290l0,-220l45,0l45,0l0,85l0,85l160,0l160,0l0,-85l0,-85l45,0l45,0l0,220l0,220l-250,0l-250,0l0,-220ZM4119.999999999985,375l0,-45l-160,0l-160,0l0,45l0,45l160,0l160,0l0,-45Z" id="BJNf3_UHASG"/>
                <path d="M4269.999999999985,290l0,-220l45,0l45,0l0,85l0,85l205,0l205,0l0,135l0,135l-250,0l-250,0l0,-220ZM4679.999999999985,375l0,-45l-160,0l-160,0l0,45l0,45l160,0l160,0l0,-45Z" id="SJHGhdUH0SM"/>
                <path d="M4829.999999999985,465l0,-45l100,0l100,0l0,-175l0,-175l45,0l45,0l0,175l0,175l105,0l105,0l0,45l0,45l-250,0l-250,0l0,-45Z" id="SJLMnu8HASG"/>
                <path d="M5389.999999999985,290l0,-220l250,0l250,0l0,220l0,220l-250,0l-250,0l0,-220ZM5799.999999999985,290l0,-130l-160,0l-160,0l0,130l0,130l160,0l160,0l0,-130Z" id="r1Dz3u8B0rf"/>
                <path d="M5949.999999999985,290l0,-220l45,0l45,0l0,85l0,85l205,0l205,0l0,135l0,135l-250,0l-250,0l0,-220ZM6359.999999999985,375l0,-45l-160,0l-160,0l0,45l0,45l160,0l160,0l0,-45Z" id="ryOf3dLrCHG"/>
                <path d="M6509.999999999985,375l0,-135l205,0l205,0l0,-40l0,-40l-205,0l-205,0l0,-45l0,-45l250,0l250,0l0,130l0,130l-205,0l-205,0l0,45l0,45l205,0l205,0l0,45l0,45l-250,0l-250,0l0,-135Z" id="ByYfnOUH0Bf"/>
            </g>
        </svg>
    </g>
    <defs id="svgEditorDefs">
        <linearGradient gradientUnits="objectBoundingBox" id="lgrd2-black-white" spreadMethod="pad" x1="0%" x2="100%" y1="0%" y2="100%">
            <stop offset="0%" stop-color="black"/>
            <stop offset="100%" stop-color="white"/>
        </linearGradient>
        <pattern height="10" id="star-navy-usr" patternUnits="userSpaceOnUse" viewBox="-20 -20 168 168" width="10" x="0" y="0">
            <path d="M63.999 0l-20.001 40.020-44 8 32 28-8 44 40.001-20 39.999 20-7.999-44 32.001-28-44.002-7.946z" style="fill:navy;stroke:none;"/>
        </pattern>
        <pattern height="20%" id="sun-gold-obox" patternUnits="objectBoundingBox" viewBox="-20 -20 168 168" width="20%" x="0%" y="0%">
            <path d="M72 16.677v-8.677c0-4.419-3.581-8-8-8s-8 3.581-8 8v8.677c2.603-0.436 5.273-0.677 8-0.677s5.397 0.24 8 0.677z" style="fill:gold;stroke:none;"/>
            <path d="M18.745 109.255c3.125 3.124 8.189 3.124 11.314 0l6.139-6.139c-4.373-3.114-8.199-6.941-11.314-11.314l-6.139 6.139c-3.123 3.123-3.123 8.189 0 11.314z" style="fill:gold;stroke:none;"/>
            <path d="M56 111.323v8.677c0 4.419 3.581 8 8 8s8-3.581 8-8v-8.677c-2.603 0.436-5.273 0.677-8 0.677s-5.397-0.24-8-0.677z" style="fill:gold;stroke:none;"/>
            <path d="M36.197 24.884l-6.139-6.139c-3.125-3.124-8.189-3.124-11.314 0s-3.124 8.189 0 11.314l6.139 6.139c3.115-4.374 6.941-8.2 11.314-11.314z" style="fill:gold;stroke:none;"/>
            <path d="M8 72h8.677c-0.437-2.603-0.677-5.273-0.677-8s0.239-5.397 0.677-8h-8.677c-4.419 0-8 3.581-8 8s3.581 8 8 8z" style="fill:gold;stroke:none;"/>
            <path d="M120 56h-8.677c0.437 2.603 0.677 5.273 0.677 8s-0.239 5.397-0.677 8h8.677c4.419 0 8-3.581 8-8s-3.581-8-8-8z" style="fill:gold;stroke:none;"/>
            <path d="M109.255 18.745c-3.124-3.124-8.189-3.124-11.314 0l-6.139 6.139c4.373 3.114 8.199 6.941 11.314 11.314l6.139-6.139c3.123-3.123 3.123-8.189 0-11.314z" style="fill:gold;stroke:none;"/>
            <path d="M109.255 109.255c3.124-3.124 3.124-8.189 0-11.314l-6.139-6.139c-3.114 4.373-6.941 8.2-11.314 11.314l6.139 6.139c3.123 3.123 8.189 3.123 11.314 0z" style="fill:gold;stroke:none;"/>
            <path d="M104 64c0 22.091-17.909 40-40 40s-40-17.909-40-40c0-22.091 17.909-40 40-40s40 17.909 40 40z" style="fill:gold;stroke:none;"/>
        </pattern>
        <pattern height="100%" id="ellipse-center" patternContentUnits="objectBoundingBox" patternUnits="objectBoundingBox" preserveAspectRatio="xMinYMin meet" width="100%" x="0%" y="0%">
            <circle cx="0.5" cy="0.5" r="0.5" style="fill:navy;fill-opacity:0.1;stroke:none;"/>
            <circle cx="0.5" cy="0.5" r="0.4" style="fill:navy;fill-opacity:0.2;stroke:none;"/>
            <circle cx="0.5" cy="0.5" r="0.3" style="fill:navy;fill-opacity:0.4;stroke:none;"/>
            <circle cx="0.5" cy="0.5" r="0.2" style="fill:navy;fill-opacity:0.6;stroke:none;"/>
            <circle cx="0.5" cy="0.5" r="0.1" style="fill:navy;fill-opacity:1;stroke:none;"/>
        </pattern>
        <radialGradient cx="50%" cy="50%" fx="50%" fy="50%" id="rgrd2-white-blue" r="50%">
            <stop offset="0%" style="stop-color:white;stop-opacity:0"/>
            <stop offset="100%" style="stop-color:blue;stop-opacity:1"/>
        </radialGradient>
        <linearGradient gradientUnits="objectBoundingBox" id="lgrd2-peachpuff-sienna-v" spreadMethod="pad" x1="0%" x2="0%" y1="0%" y2="100%">
            <stop offset="0%" style="stop-color: dodgerblue; stop-opacity: 0.84;"/>
            <stop offset="100%" style="stop-color: mediumblue; stop-opacity: 1;"/>
        </linearGradient>
        <linearGradient gradientUnits="objectBoundingBox" id="lgrd2-peachpuff-sienna-h" spreadMethod="pad" x1="0%" x2="100%" y1="0%" y2="0%">
            <stop offset="0%" style="stop-color:peachpuff;  stop-opacity:1;"/>
            <stop offset="100%" style="stop-color:sienna;  stop-opacity:1"/>
        </linearGradient>
        <linearGradient gradientUnits="objectBoundingBox" id="lgrd2-fire" spreadMethod="pad" x1="100%" x2="100%" y1="0%" y2="100%" gradientTransform="matrix(1 0 0 1 0 0) scale(2 2)">
            <stop offset="0" style="stop-color: rgb(0, 248, 255); stop-opacity: 1;"/>
            <stop offset="0.490909" style="stop-color: rgb(0, 0, 184); stop-opacity: 1;"/>
        </linearGradient>
        <linearGradient gradientUnits="objectBoundingBox" id="lgrd2-b" spreadMethod="pad" x1="100%" x2="100%" y1="0%" y2="100%">
            <stop offset="0%" stop-color="#00F8FF"/>
            <stop offset="100%" stop-color="#0000B8"/>
        </linearGradient>
        <polygon id="svgEditorShapeDefs" style="fill:khaki;stroke:black;vector-effect:non-scaling-stroke;stroke-width:1px;"/>
        <linearGradient id="lgrd3-fr-h" x1="100%" y1="0%" x2="100%" y2="100%" spreadMethod="pad" gradientUnits="objectBoundingBox" gradientTransform="rotate(0)">
            <stop offset="0.0454545" stop-color="royalblue"/>
            <stop offset="1" stop-color="royalblue"/>
        </linearGradient>
    </defs>
</svg>